{
    "user": [{ "user_id": 3104, "username": "testuser", "status": "active" }],

    "message": [{ "datetime": "2017-04-12T09:01:47.885Z", "message": "5656\n", "user_id": "Bob", "chatroom_id": "MAIN" }, { "datetime": "2017-05-03T07:57:28.932Z", "message": "fddg\n", "user_id": "Dylan", "chatroom_id": "MAIN" }]
}